"name","phone","e-mail","address"
"Богуслава Влох","055 375-39-37","vbabiuk@ukr.net","площа Скляний 1-й, буд. 5 кв. 1, Кам'янка-Дніпровська, 81701"
"Орися Деревʼянко","+380 53 992 17 04","adaievtushok@khorishko.net","вулиця Соляний 2-й, буд. 27 кв. 69, Гірник , 38225"
"пані Роксолана Рябець","830 69 60","ysliusar@email.ua","площа Касима Юрія, буд. 9, Дрогобич, 23971"
"Арсен Ярема","312 56 14","yzasiadko@tsiupa.net","площа Вишневий, буд. 232 кв. 4, Надвірна, 94783"
"Орися Ткач","059 744 66 22","geregaroman@email.ua","вулиця Миколи Огренича, буд. 138 кв. 8, Кропивницький, 31599"
"Орхип Рудько","+380 87 619-12-95","symonbandurka@email.ua","сквер Кільцева, буд. 40, Кам'янець-Подільський, 91768"
"Орися Чабан","+380 (24) 285-19-22","albina14@gmail.com","площа Травневий 5-й, буд. 90, Снігурівка, 83569"
"Мирослав Пʼятаченко","+380 (82) 356-22-22","baleksiuk@vakhnii.ukr","сквер Бахчева, буд. 07 кв. 461, Зоринськ, 34061"
"Наталія Тесля","+380 (55) 263-20-34","vasylechkofeofan@abramchuk.org","проспект Амбулаторний, буд. 446 кв. 3, Бердянськ, 36304"
"Захар Короленко","042 955 33 56","iosyp32@gmail.com","проспект Бессарабська, буд. 355 кв. 8, Вінниця, 99241"
"Еріка Давиденко","+380 (04) 646-00-83","zarubamykyta@gmail.com","площа Ланжеронівський узвіз, буд. 2, Луганськ, 64080"
"Галина Вернидуб","+380 48 399 30 83","solomiia13@arsenych-poltavets.info","вулиця Улітіна, буд. 146 кв. 846, Армянськ, 89626"
"Станіслав Запорожець","+380 (89) 865-52-05","ostap89@androshchuk.com","узвіз Петра Лещенка, буд. 5, Миколаїв, 96849"
"Пантелеймон Валенко","+380 57 662 93 66","apiatachenko@baklan.net","площа Карпатська, буд. 070 кв. 6, Дунаївці, 59071"
"Віолетта Литвин","+380 07 407-34-82","kivashchenko@haidamaka-kylymnyk.com","проспект Рєпіна, буд. 95, Чернігів, 78881"
"Франц Сімашкевич","+380 68 766-57-01","ihnat35@i.ua","узвіз Дерибасівська, буд. 414, Маріуполь, 60002"
"Святослав Єфименко","+380 99 089-74-01","bavramchuk@tychyna.ua","сквер Амурський 4-й, буд. 5, Бровари, 33901"
"Святослава Батюк","273 20 00","iurchyshynaaron@i.ua","шосе Мазараті, буд. 206, Зборів, 27683"
"Болеслав Гриценко","029 946-54-27","vbatih@gov.ua","парк Моторний 2-й, буд. 7 кв. 14, Петрово-Красносілля, 87790"
"Аліна Оніщук","+380 58 418-55-82","myron78@gov.ua","шосе Ширяївський, буд. 0 кв. 68, Енергодар, 75457"
"Аркадій Лемешко","+380 (76) 012-46-16","piatachenkomariana@email.ua","узвіз Кипарисний 3-й, буд. 44, Стрий, 61210"
"Григорій Гузь","+380 37 245 47 67","odarka67@meta.ua","проспект Заводська 3-тя, буд. 6 кв. 799, Стебник, 44057"
"Аніта Засенко","+380 (05) 021-39-57","albina48@ukr.net","узвіз Аркаса Миколи, буд. 87 кв. 7, Горішні Плавні, 79483"
"Омелян Байда","+380 07 347 43 25","iustym42@email.ua","набережна Банний, буд. 16 кв. 618, Красноперекопськ, 16098"
"Дарина Джунь","+380 (03) 479-06-56","umanetsmariana@vdovenko-pavlychenko.ua","набережна Кінна, буд. 7 кв. 9, Чернівці, 60977"
"Ольга Василашко","007 874-07-44","perepelytsiamarta@vitruk.com","проспект Сільська, буд. 8 кв. 004, Попасна, 11757"
"Максим Артимович","973 87 82","boleslavdziuba@dzhus.org","набережна Кропивницького, буд. 7, Золоте, 45004"
"Сергій Христенко","418 39 62","kyryloshvachka@syrotenko.ua","узвіз 13-та Суворовська, буд. 6 кв. 357, Чуднів, 87115"
"Роман Шутько","+380 22 523-06-30","vladyslavdakhno@gmail.com","парк Молодогвардійська, буд. 118, Вознесенськ, 56905"
"пан Ігнат Саченко","+380 80 913-46-62","sviatoslavafareniuk@meta.ua","сквер Старопортофранківська, буд. 236, Полонне, 05879"
"Христина Товстоліс","+380 82 956-39-39","vladyslavvashchenko@gov.ua","вулиця Суперфосфатна, буд. 775, Макіївка, 41192"
"Надія Дрозд","029 096 58 25","mariana91@khrystenko.info","парк Лінія 25-та, буд. 524, Брянка, 12435"
"Ада Іванченко","+380 05 965-72-01","trokhympalii@gov.ua","узвіз Люстдорфський, буд. 84 кв. 69, Коростишів, 65592"
"Борис Башполченко","+380 10 204-10-18","tovstolismykolai@gov.ua","проспект В’ячеслава Чорновола, буд. 9, Турка, 99417"
"Степан Шамрай","+380 (22) 042-62-27","khoma43@darahan.ukr","парк Мацієвської узвіз, буд. 3, Лебедин, 46954"
"Леон Євтушок","759 65 39","sviatoslava23@meta.ua","узвіз Тимірязєва 4-й, буд. 906 кв. 96, Моршин, 58920"
"пан Макар Жаліло","063 682 22 90","vmalyshko@atamanchuk.org","сквер Новікова 2-га, буд. 325, Українськ, 48923"
"Святослава Голик","+380 95 913-36-10","zabarnyisemen@mykytiuk.net","парк Мусіна, буд. 99 кв. 468, Антрацит , 63115"
"пані Ада Приймак","072 610-39-97","larkhymovych@riabchenko-yesypenko.com","набережна Рельєфна, буд. 029, Армянськ, 57462"
"Панас Тихий","004 500-22-50","lavrenkoboryslav@protsenko.net","сквер 5-та Лінія 6-й ст. Люстдорфської дороги, буд. 02 кв. 45, Вишгород, 65215"
"Тимофій Матвієнко","566-81-13","odevdiuk@email.ua","набережна Старосінна, буд. 006 кв. 1, Яворів, 89569"
"Ірена Семенченко","220-24-91","izhakiaroslav@ukr.net","вулиця Курська, буд. 2 кв. 345, Барвінкове, 81293"
"Тереза Баранник","+380 46 805-21-42","arseneibozhenko@zaporozhets.net","проспект Пересипська 5-та, буд. 461, Зугрес, 06398"
"Богуслава Архимович","056 824 04 87","iarema05@chuiko.ukr","парк Ляпунова, буд. 78 кв. 182, Ужгород, 59743"
"Соломія Яценюк","002 293 35 58","hryhorii85@verkhovynets.ua","набережна 12-та Суворовська, буд. 8 кв. 96, Болград, 89254"
"Наталія Яремко","+380 (22) 778-75-49","drobiazkohlib@email.ua","парк Лиманчик 2-й Лінія 9-та, буд. 95, Надвірна, 30218"
"Одарка Цимбалюк","096 312-19-71","opanasshchors@yerchenko.ukr","провулок Косвена, буд. 711 кв. 2, Борщів, 62652"
"пан Валентин Смик","051 829-61-65","maryna22@ukr.net","проспект Композитора Ніщинського, буд. 37 кв. 01, Комарно, 32494"
"Віолетта Абрагамовський","+380 81 295-93-74","jkorsun@bezborodko.info","сквер Мацієвської узвіз, буд. 49, Дніпрорудне, 58488"
"Амвросій Лукаш","157 10 86","serhiipoltavets@filipenko.com","площа Лиманна, буд. 8 кв. 7, Монастирище, 54194"
"Ольга Гаєвський","077 505 49 77","xiaremko@ukr.net","провулок Левітана, буд. 008 кв. 06, Міусинськ, 18955"
"Тетяна Гайденко","298-34-14","leontiimatiash@andriiovych.ukr","сквер Висока, буд. 8 кв. 51, Монастириська, 33295"
"Орина Даниленко","003 976 25 50","hunkovolodymyra@riabchenko-yeroshenko.info","вулиця Сабанєєв, буд. 246, Берислав, 34549"
"Тетяна Вовк","016 031 62 65","iukhym46@gov.ua","узвіз Єлисаветградський, буд. 5 кв. 735, Новодністровськ, 40187"
"пані Марʼяна Бабійчук","+380 (35) 815-72-44","bpavlychenko@meta.ua","вулиця Побратимів, буд. 425, Винники, 70745"
"Венедикт Охримович","018 959-18-08","mykolai28@ukr.net","узвіз Декабристів, буд. 4, Острог, 35700"
"Ростислав Баштан","+380 (76) 352-86-65","rakymenko@gov.ua","сквер Тупиковий, буд. 131 кв. 41, Старий Самбір, 28133"
"Анжела Філіпенко","789 50 35","rhaidamaka@danylchuk-riabchenko.com","узвіз Асташкіна, буд. 48, Зборів, 97182"
"Варвара Гайда","740 94 54","chumakadam@shtokalo-hupalo.ua","сквер Приморський, буд. 26, Красногорівка, 96712"
"Василь Рудик","+380 78 167-51-45","izhakliza@khorishko.ukr","вулиця Восьмого Березня Лінія 1-ша, буд. 8 кв. 546, Південне , 53003"
"Соломія Ватаманюк","+380 97 940 98 55","oivanychuk@reva.ua","набережна Ашгабатська, буд. 5 кв. 15, Сватове, 20247"
"Сніжана Ткач","+380 72 783-26-72","larysamakarenko@meta.ua","сквер Сурикова, буд. 623, Слов'янськ, 27234"
"Еріка Піддубний","461-10-57","yvanchenko@lesyk-yizhakevych.com","провулок 5-та Лінія 6-й ст. Люстдорфської дороги, буд. 54 кв. 14, Алчевськ, 87145"
"Августин Бакуменко","+380 25 166-66-25","gderehus@email.ua","провулок Бокаріуса Миколи, буд. 012 кв. 961, Яремче, 70600"
"Надія Ніколюк","069 629-75-30","sviatoslav26@gmail.com","шосе Бреуса, буд. 2, Кропивницький, 94513"
"Болеслав Палій","009 434 99 27","liza64@kolisnychenko.ua","узвіз Красносільська, буд. 423 кв. 98, Вижниця, 92332"
"Оксенія Гавриш","421 30 06","iarynakhmara@gov.ua","узвіз Контрадмірала Луніна, буд. 49 кв. 713, Овруч, 11027"
"Євген Шиян","+380 88 184 80 57","oksana09@gmail.com","узвіз Єфімова, буд. 1, Перечин, 62101"
"Микита Жарко","074 111 24 37","rostyslavdavydenko@ukr.net","площа Вишнева, буд. 88, Мостиська, 79796"
"Роман Юрченко","+380 (36) 019-71-14","daryna72@tytarenko.ua","шосе Дача Ковалевського, буд. 51, Костопіль, 77822"
"пані Лариса Калениченко","510-80-47","bohuslavamykytiuk@palii-lavrenko.ukr","площа Михайлівська, буд. 016, Глиняни, 11408"
"Тетяна Смик","069-47-12","karpamartyn@gov.ua","вулиця Юрія Яновського, буд. 7, Балаклія, 66987"
"Борислав Рябовіл","005 87 48","oryna66@email.ua","провулок Лінія 37-ма, буд. 684, Дружківка, 10665"
"пані Ірина Теліженко","+380 76 366 21 77","nivashchenko@gov.ua","проспект Офіцерський 1-й, буд. 5, Новодністровськ, 07231"
"Макар Ґерус","+380 13 546-70-64","erikafesenko@email.ua","проспект Чорноморський 11-й, буд. 6 кв. 9, Богуслав, 38880"
"Тетяна Бакуменко","434 68 86","khudiakmarko@ukr.net","вулиця Тимірязєва, буд. 1, Дунаївці, 94170"
"Ірина Чорновіл","010 951 84 27","vasylevychsemen@ostapchuk-syrotenko.net","парк Володі Дубініна, буд. 0 кв. 645, Миргород, 78855"
"Єлисей Демиденко","+380 37 068 49 36","marusia10@vashchenko.info","сквер Штабний, буд. 4, Каховка, 16970"
"Ада Корж","+380 56 692 88 17","zholyk@haidenko.net","провулок Літакова, буд. 8 кв. 597, Зоринськ, 84140"
"пан Леонід Комар","039 818 31 03","ihor64@bashpolchenko.org","парк Восьмого Березня Лінія 3-тя, буд. 926 кв. 8, Калуш, 67380"
"Аліна Закусило","723 58 67","babychorest@ukr.net","провулок Якірний, буд. 095 кв. 1, Вугледар, 06217"
"Хома Джунь","042 652-39-77","dankevychtrokhym@medvedenko-prykhodko.net","площа Платанова, буд. 6 кв. 7, Шаргород, 34011"
"Лукʼян Бевзенко","+380 70 929-35-02","havryliukviktoriia@babiuk.info","площа Надіїі, буд. 4 кв. 6, Новодружеськ, 94732"
"Богодар Гайдамака","+380 00 272 70 36","rostyslavmykytiuk@vovk.com","узвіз Тиха, буд. 535 кв. 782, Ізяслав, 30495"
"Августин Оберемко","+380 28 471 12 95","khomabezborodky@gmail.com","проспект Локомотивний 2-й, буд. 21, Березань , 66588"
"Богодар Луценко","+380 06 240-05-80","artemiatseniuk@i.ua","сквер Кленова, буд. 289, Славута, 68558"
"Пармен Щербань","079 810-40-15","czhuravel@holyk.ukr","узвіз Строганов міст, буд. 084 кв. 840, Чугуїв, 63002"
"пані Софія Харченко","+380 32 641-05-42","nishchak@sirobaba.net","проспект Рівний, буд. 94 кв. 2, Овруч, 49630"
"Світлана Алексеєнко","+380 43 529-43-34","iakivskopenko@meta.ua","узвіз Василя Кандинського 3-й, буд. 005, Каховка, 03781"
"Леон Вовк","+380 38 911-32-48","ciukhymenko@abramchuk-radchenko.net","площа 3-тя Суворовська, буд. 4 кв. 40, Радехів, 16881"
"Марʼяна Карпа","+380 75 067 17 53","violetta89@i.ua","вулиця Трамвайна, буд. 5, Приморськ (Україна), 74490"
"пані Марта Литвин","+380 21 071-17-20","artem95@mazepa-voblyi.net","провулок Малиновський, буд. 042, Покров, 14412"
"Аврелій Арсенич","+380 08 777-87-87","orynafurs@email.ua","набережна Леха Качинського, буд. 8, Василівка , 13808"
"Володимир Савенко","+380 04 888 72 82","xdanko@ukr.net","набережна Сонячна, буд. 0 кв. 29, Лубни, 03373"
"Світлана Козак","+380 34 312 82 31","fedir23@chalenko.ua","проспект Наявний 6-й, буд. 5 кв. 591, Шпола, 12097"
"Ольга Захаренко","637 31 48","frantshuzenko@zhuk.ukr","провулок Лобачевського, буд. 373 кв. 190, Жмеринка, 66097"
"Данна Сімашкевич","+380 71 594 52 28","qartym@email.ua","провулок Депутатський, буд. 6, Славутич, 61260"
"Тимофій Устенко","053 368-50-83","opanasdashkevych@chalyi.net","площа Середньофонтанський, буд. 8 кв. 183, Жовква, 38133"
"пані Анжела Цюпа","+380 (77) 076-93-23","ielysaveta67@vitruk.ua","провулок Джутовий, буд. 830 кв. 1, Заводське, 11846"
"Орина Свириденко","018 075 61 23","demian85@gmail.com","шосе Бориса Літвака, буд. 41 кв. 904, Сокиряни, 32799"
